…
### Original MAF table

    ## # A tibble: 54,343 × 27
    ##    SUBJECT_NAME MUTATION_ID GENE.SYMBOL AA.CHANGE MUTATION_TYPE DETECTION_TYPE
    ##    <chr>              <int> <chr>       <chr>     <fct>         <chr>         
    ##  1 DLBCL11255        225513 CD79B       Y196S     MISSENSE      regular       
    ##  2 DLBCL11255      28031221 PIK3C2B     P199S     MISSENSE      regular       
    ##  3 DLBCL11255      28843675 SPDYE3      A542V     MISSENSE      regular       
    ##  4 DLBCL11255      34801656 TMED2       A140V     MISSENSE      regular       
    ##  5 DLBCL11255      52880134 NT5C2       F49Y      MISSENSE      regular       
    ##  6 DLBCL11255      52880881 JMJD1C      S1437G    MISSENSE      regular       
    ##  7 DLBCL11255      52881412 ST14        G11E      MISSENSE      regular       
    ##  8 DLBCL11255      52881442 ACAD8       G14D      MISSENSE      regular       
    ##  9 DLBCL11255      52881583 TCP11L1     P385L     MISSENSE      regular       
    ## 10 DLBCL11255      52881917 PHOX2A      Splice    TRUNC         regular       
    ## # ℹ 54,333 more rows
    ## # ℹ 21 more variables: CHROMOSOME <chr>, HG.19.POSITION <int>, REF..NT <chr>,
    ## #   ALT..NT <chr>, ENTREZ_GENE_ID <int>, EXEMPLAR.ACCESSION <chr>,
    ## #   HaloPlex <int>, Exon.Seq <int>, RNA.Seq <int>,
    ## #   ADDITION_INHOUSE_EVIDENCE <int>, ANNOVAR_POP_FREQ_MAX <dbl>,
    ## #   X1000_Genome_ALL_Freq <dbl>, EXAC_ALL_Freq <dbl>, ESP_ALL_Freq <dbl>,
    ## #   NCI60_Freq <dbl>, COSMIC <chr>, SIFT_SCORE <dbl>, SIFT_PRED <chr>, …
…
``` r
if(params$dedup) {
  maf.tbl.dup <- maf.tbl.orig %>% 
    filter(duplicated(maf.tbl.orig %>% select(SUBJECT_NAME, MUTATION_ID)))
  maf.tbl <- maf.tbl.orig %>% select(-DETECTION_TYPE) %>% distinct()
} else {
  maf.tbl <- maf.tbl.orig
}
```

### MAF table

    ## # A tibble: 53,910 × 26
    ##    SUBJECT_NAME MUTATION_ID GENE.SYMBOL AA.CHANGE MUTATION_TYPE CHROMOSOME
    ##    <chr>              <int> <chr>       <chr>     <fct>         <chr>     
    ##  1 DLBCL11255        225513 CD79B       Y196S     MISSENSE      17        
    ##  2 DLBCL11255      28031221 PIK3C2B     P199S     MISSENSE      1         
    ##  3 DLBCL11255      28843675 SPDYE3      A542V     MISSENSE      7         
    ##  4 DLBCL11255      34801656 TMED2       A140V     MISSENSE      12        
    ##  5 DLBCL11255      52880134 NT5C2       F49Y      MISSENSE      10        
    ##  6 DLBCL11255      52880881 JMJD1C      S1437G    MISSENSE      10        
    ##  7 DLBCL11255      52881412 ST14        G11E      MISSENSE      11        
    ##  8 DLBCL11255      52881442 ACAD8       G14D      MISSENSE      11        
    ##  9 DLBCL11255      52881583 TCP11L1     P385L     MISSENSE      11        
    ## 10 DLBCL11255      52881917 PHOX2A      Splice    TRUNC         11        
    ## # ℹ 53,900 more rows
    ## # ℹ 20 more variables: HG.19.POSITION <int>, REF..NT <chr>, ALT..NT <chr>,
    ## #   ENTREZ_GENE_ID <int>, EXEMPLAR.ACCESSION <chr>, HaloPlex <int>,
    ## #   Exon.Seq <int>, RNA.Seq <int>, ADDITION_INHOUSE_EVIDENCE <int>,
    ## #   ANNOVAR_POP_FREQ_MAX <dbl>, X1000_Genome_ALL_Freq <dbl>,
    ## #   EXAC_ALL_Freq <dbl>, ESP_ALL_Freq <dbl>, NCI60_Freq <dbl>, COSMIC <chr>,
    ## #   SIFT_SCORE <dbl>, SIFT_PRED <chr>, PP2_HDIV <dbl>, PP2_HDIV_PRED <chr>, …
#### Number of mutations per sample

``` r
count.bysample <- maf.tbl %>% 
  group_by(SUBJECT_NAME) %>% 
  summarise(
    nMUT = n_distinct(MUTATION_ID),
    uGENE = n_distinct(GENE.SYMBOL)
  ) %>% 
  arrange(desc(nMUT))

count.bysample
```

    ## # A tibble: 529 × 3
    ##    SUBJECT_NAME  nMUT uGENE
    ##    <chr>        <int> <int>
    ##  1 DLBCL10478    1338  1219
    ##  2 DLBCL11439    1323  1202
    ##  3 DLBCL11512     916   835
    ##  4 DLBCL10837     433   417
    ##  5 DLBCL11655     288   213
    ##  6 DLBCL11677     271   262
    ##  7 DLBCL11494     251   238
    ##  8 TCGA-GS-A9TZ   237   218
    ##  9 DLBCL11479     235   233
    ## 10 DLBCL11455     213   201
    ## # ℹ 519 more rows
…
# One row per subject+
collapse.gene.tbl <- (
  annot.maf.tbl %>%
    slice_head(n=1) %>%
    arrange(desc(nmut_sample), desc(nmut_gene))
)
```

``` r
collapse.gene.tbl %>% 
  select(SUBJECT_NAME, GENE.SYMBOL, AA.CHANGE, AA.CHANGE.slst, MUTATION_TYPE, MUTATION_TYPE.slst)
```

    ## # A tibble: 50,299 × 6
    ## # Groups:   SUBJECT_NAME, GENE.SYMBOL [50,299]
    ##    SUBJECT_NAME GENE.SYMBOL AA.CHANGE AA.CHANGE.slst               MUTATION_TYPE
    ##    <chr>        <chr>       <chr>     <chr>                        <fct>        
    ##  1 DLBCL10478   ARHGEF1     V430fs    V430fs,Splice,H446R,K582E,Y… TRUNC        
    ##  2 DLBCL10478   KMT2D       Splice    Splice,E5081G,L3977P,A2064T… TRUNC        
    ##  3 DLBCL10478   EHMT1       Splice    Splice,C276S,M293V,Y824C     TRUNC        
    ##  4 DLBCL10478   MYO9B       I659V     I659V,Q1296R,N1631S,E1952A   MISSENSE     
    ##  5 DLBCL10478   CARS2       E489V     E489V,T402A,W75R             MISSENSE     
    ##  6 DLBCL10478   KCNU1       Splice    Splice,Splice,Splice         TRUNC        
    ##  7 DLBCL10478   KIAA1468    R222X     R222X,Splice,Splice          TRUNC        
    ##  8 DLBCL10478   LRP1B       K4134X    K4134X,N3860fs,Splice        TRUNC        
    ##  9 DLBCL10478   MKRN2       N95S      N95S,E141K,Y349C             MISSENSE     
    ## 10 DLBCL10478   NOP14       E824D     E824D,H636R,L597P            MISSENSE     
    ## # ℹ 50,289 more rows
    ## # ℹ 1 more variable: MUTATION_TYPE.slst <chr>

### Extract mutations to table

``` r
all.genes <- collapse.gene.tbl %>% group_by(GENE.SYMBOL) %>% tally(sort=T)
all.genes
```

    ## # A tibble: 13,453 × 2
    ##    GENE.SYMBOL     n
    ##    <chr>       <int>
    ##  1 KMT2D         175
    ##  2 PIM1          152
    ##  3 MYD88         136
    ##  4 TP53          127
    ##  5 HLA-B         110
    ##  6 BTG2          103
    ##  7 CREBBP         96
    ##  8 TNFAIP3        95
    ##  9 TMSB4X         87
    ## 10 OSBPL10        86
    ## # ℹ 13,443 more rows
…
### Original MAF table

    ## # A tibble: 529 × 4
    ##    SUBJECT_NAME fusion.BCL6 fusion.BCL2 fusion.MYC
    ##    <chr>        <chr>       <chr>       <chr>     
    ##  1 DLBCL10116   .           .           .         
    ##  2 DLBCL10450   .           .           x         
    ##  3 DLBCL10451   x           x           .         
    ##  4 DLBCL10452   .           .           .         
    ##  5 DLBCL10453   .           .           .         
    ##  6 DLBCL10454   .           .           .         
    ##  7 DLBCL10455   .           .           .         
    ##  8 DLBCL10456   .           .           .         
    ##  9 DLBCL10457   .           .           .         
    ## 10 DLBCL10458   x           .           .         
    ## # ℹ 519 more rows
…
