…
``` r
mutfus.tbl
```

    ## # A tibble: 529 × 3,255
    ##    case   subtype.herv KMT2D PIM1  MYD88 TP53  HLA.B BTG2  CREBBP TNFAIP3 TMSB4X
    ##    <chr>  <fct>        <fct> <fct> <fct> <fct> <fct> <fct> <fct>  <fct>   <fct> 
    ##  1 DLBCL… HC1          .     .     .     x     .     .     .      .       .     
    ##  2 DLBCL… HC2          .     x     .     .     x     x     .      .       .     
    ##  3 DLBCL… HC3          x     .     .     .     .     .     x      .       .     
    ##  4 DLBCL… HC1          .     x     .     x     .     .     x      .       .     
    ##  5 DLBCL… HC4          .     .     x     .     .     .     .      .       .     
    ##  6 DLBCL… HC1          .     .     .     .     .     .     .      .       .     
    ##  7 DLBCL… HC5          x     .     .     x     .     .     .      .       .     
    ##  8 DLBCL… HC4          .     .     .     x     x     .     .      .       .     
    ##  9 DLBCL… HC1          .     .     .     .     .     .     .      .       .     
    ## 10 DLBCL… HC3          x     .     .     .     x     .     .      .       .     
    ## # ℹ 519 more rows
    ## # ℹ 3,244 more variables: OSBPL10 <fct>, HIST1H1E <fct>, B2M <fct>,
    ## #   CARD11 <fct>, DTX1 <fct>, TNFRSF14 <fct>, HLA.A <fct>, BTG1 <fct>,
    ## #   CD79B <fct>, SOCS1 <fct>, TBL1XR1 <fct>, DUSP2 <fct>, BCL6 <fct>,
    ## #   CCND3 <fct>, IRF8 <fct>, PRDM1 <fct>, KLHL6 <fct>, MEF2B <fct>, SGK1 <fct>,
    ## #   SPEN <fct>, BCL2 <fct>, CD58 <fct>, STAT3 <fct>, MPEG1 <fct>, SETD1B <fct>,
    ## #   FAS <fct>, HIST1H1C <fct>, IRF2BP2 <fct>, ARID1A <fct>, BCL10 <fct>, …
…
